{
	"extends": "tslint:recommended",
	"rules": {
		"max-line-length": {
			"options": [1024]
		},
		"new-parens": true,
		"no-arg": true,
		"no-bitwise": true,
		"no-conditional-assignment": true,
		"no-string-literal": false,
		"indent": [true, "tabs", 4],
		"no-console": [true, "log"],
		"quotemark": [true, "single", "jsx-double"],
		"arrow-parens": [true, "ban-single-arg-parens"],
		"curly": [true, "ignore-same-line"],
		"member-ordering": [true, "fields-first"]
	}
}
